Vizuelizacija podataka :: RToolbox
…
Da li životni vek zavisi od bruto nacionalnog dohotka po glavi stanovnika?

Bacite pogled na podatke (tip: sample_n(df, n))

Napravite xy  grafikon: šta vam on govori?

Napravite regresioni model: da li tu postoji neka veza? Koliko je jaka? Da li je veza linearna? Šta možemo zaključiti iz grafikona?

Koja se još pitanja otvaraju; možete li dati odgovor na njih?

😃🙌 SRešenje: kod za prvo pitanje; primer

sample_n(gapminder, 30)

## # A tibble: 30 x 6
##    country        continent  year lifeExp       pop gdpPercap
##    <fct>          <fct>     <int>   <dbl>     <int>     <dbl>
##  1 United States  Americas   1952    68.4 157553000    13990.
##  2 Honduras       Americas   1997    67.7   5867957     3160.
##  3 Rwanda         Africa     1962    43     3051242      597.
##  4 Egypt          Africa     1957    44.4  25009741     1459.
##  5 Panama         Americas   1952    55.2    940080     2480.
##  6 United States  Americas   1972    71.3 209896000    21806.
##  7 United Kingdom Europe     1962    70.8  53292000    12477.
##  8 Italy          Europe     1997    78.8  57479469    24675.
##  9 Puerto Rico    Americas   2002    77.8   3859606    18856.
## 10 Nepal          Asia       1952    36.2   9182536      546.
## # ... with 20 more rows
…
