Data Visualisation :: Rtoolbox
…
Have a glance at the data. (tip: sample_n(df, n))

Produce a scatterplot: what does it tell you?

Fit a regression model: is there a relationship? How strong is it?
Is the relationship linear? What conclusion(s) can you draw?

What are the other questions you could ask; could you provide the answers to them?

😃🙌 Solution: code Q1; sample

sample_n(gapminder, 30)

## # A tibble: 30 x 6
##    country                continent  year lifeExp      pop gdpPercap
##    <fct>                  <fct>     <int>   <dbl>    <int>     <dbl>
##  1 Mauritius              Africa     1992    69.7  1096202     6058.
##  2 Peru                   Americas   1997    68.4 24748122     5838.
##  3 Iran                   Asia       1982    59.6 43072751     7608.
##  4 Thailand               Asia       1977    62.5 44148285     1961.
##  5 Bosnia and Herzegovina Europe     2002    74.1  4165416     6019.
##  6 Malawi                 Africa     2002    45.0 11824495      665.
##  7 Canada                 Americas   1952    68.8 14785584    11367.
##  8 Chile                  Americas   1957    56.1  7048426     4316.
##  9 Iceland                Europe     1952    72.5   147962     7268.
## 10 West Bank and Gaza     Asia       1957    45.7  1070439     1827.
## # … with 20 more rows
…
